api\chocoboy\sms\ChocoSMS.class
api\chocoboy\request\ChocoHttpRequestSender$1.class
api\chocoboy\sms\ChocoVoice.class
api\chocoboy\test\testrequest\Main3.class
api\chocoboy\test\testlogger\Main2.class
api\chocoboy\test\testrequest\Main5.class
api\chocoboy\test\testsms\Main6.class
api\chocoboy\test\testtools\Main.class
api\chocoboy\logger\ChocoLogger.class
api\chocoboy\test\testsms\Main5.class
api\chocoboy\test\testsms\Main3.class
api\chocoboy\test\testtools\Main2.class
api\chocoboy\sms\cli\VoiceMessageCLI.class
api\chocoboy\test\testrequest\Main4.class
api\chocoboy\request\ChocoHttpResponse.class
api\chocoboy\test\testsms\Main2.class
api\chocoboy\tools\ChocoTools.class
api\chocoboy\sms\cli\MessageCLI.class
api\chocoboy\sms\ChocoSMSbyFast2SMS.class
api\chocoboy\test\testrequest\Main.class
api\chocoboy\test\testrequest\Main2.class
api\chocoboy\test\testrequest\Main6.class
api\chocoboy\test\testsms\Main.class
api\chocoboy\test\testlogger\Main.class
api\chocoboy\request\ChocoHttpRequestSender.class
api\chocoboy\sms\cli\MessageSendingMachine.class
api\chocoboy\test\testsms\TestChocoSMSbyFast2SMS.class
api\chocoboy\test\testsms\Main4.class
api\chocoboy\test\testlogger\Main3.class
